Global Health Research Methods - 5 Measurement and Construct Validation
…
Repeating administrations of an instrument with the same people to assess test-retest reliability is not always feasible, so in 1951 the educational psychologist Lee Cronbach came up with a way to measure what he called internal consistency reliability in a single administration. Rather than measuring the correlation in scale scores at multiple time points, internal consistency reliability evaluates how closely the scale items ascertained in a single administration are related to each other. If the items are not highly correlated with each other, it’s unlikely that they are measuring the same latent construct. In other words, the items are not internally consistent when it comes to measuring the construct.

The most commonly used index of internal consistency reliability is Cronbach’s alpha, but it has many detractors (McNeish, 2018). It’s still widely used because it’s easy to calculate with any statistics software. The basic approach is to divide the mean covariance between items by the mean item variance:

\[\alpha = (N*\bar{c}) / (\bar{v}+(N−1)*\bar{c})\]

where 𝑁 equals the number of items, \(\bar{c}\) is the mean covariance between items, and \(\bar{v}\) is the mean item variance. This means that Cronbach’s alpha quantifies how much of the overall variability is due to the relationships between the items. It can range from 0 to 1 where 1 indicates perfect reliability.

Use the Kuder-Richardson 20 formula (KR20) if you have binary variables.

Before we calculate Cronbach’s alpha, let’s glimpse the HAP data. As a reminder, this data comes from participants in the control arm, collected three months after the treatment arm completed the HAP program.

Refer to Figure 5.8 to see a visualization of the item correlation matrix.

# A tibble: 236 × 20
   bdi01 bdi02 bdi03 bdi04 bdi05 bdi06 bdi07 bdi08 bdi09 bdi10 bdi11 bdi12 bdi13
   <dbl> <dbl> <dbl> <dbl> <dbl> <dbl> <dbl> <dbl> <dbl> <dbl> <dbl> <dbl> <dbl>
 1     2     1     2     1     1     3     3     3     0     3     2     2     2
 2     2     2     1     0     1     3     3     3     0     2     3     1     2
 3     3     3     3     3     3     3     3     2     3     3     3     2     2
 4     1     2     2     0     1     3     3     3     3     3     3     1     0
 5     1     3     3     1     3     3     3     3     3     3     3     2     2
 6     2     3     2     1     1     1     3     2     1     2     3     2     2
 7     2     2     3     2     3     3     3     3     3     3     3     3     3
 8     3     3     3     2     2     3     0     2     3     2     3     1     3
 9     2     3     3     3     3     2     3     3     3     3     3     1     3
10     3     2     1     2     3     3     3     3     3     3     3     3     3
# ℹ 226 more rows
# ℹ 7 more variables: bdi14 <dbl>, bdi15 <dbl>, bdi16 <dbl>, bdi17 <dbl>,
#   bdi18 <dbl>, bdi19 <dbl>, bdi20 <dbl>
…
